Id	Uid	Program Name (Gs Reporting Affiliate Link)	Currency	Sale State	Sale Date	Commission
6799034	f5f787af618175f96d2b9bb5493c7460f6b6080b	BahnCard und Bahn&Hotel (3101)	EUR	approved	12.03.2017 11:13:38	1,0
6879720	f90df0763f5de1672dcc0964004716e4975e87af	Lufthansa (12016)	EUR	approved	14.03.2017 18:04:36	0,6
6880043	35b1cd2442c85375da42235bd3ec68de34c9ab61	Lufthansa (12016)	EUR	approved	30.03.2017 16:24:14	9,0
6880044	35b1cd2442c85375da42235bd3ec68de34c9ab61	Lufthansa (12016)	EUR	approved	30.03.2017 16:30:33	6,0
6880045	35b1cd2442c85375da42235bd3ec68de34c9ab61	Lufthansa (12016)	EUR	approved	30.03.2017 16:32:57	7,3
6880046	35b1cd2442c85375da42235bd3ec68de34c9ab61	Lufthansa (12016)	EUR	approved	31.03.2017 20:46:04	1,0
6888045	c63cc331fa73372feba4b81aef835eb965ffffca	BahnCard und Bahn&Hotel (3101)	EUR	approved	17.03.2017 16:13:54	3,0
6888967	45d11ec532dd9112c35055cefd4e40edf0d427df	Justaway.com - Das Reiseportal (13233)	EUR	approved	25.03.2017 07:30:54	17,4
6893276	90e32e26c8c0ab31562d7bc83d0d49c96d5a1a05	BahnCard und Bahn&Hotel (3101)	EUR	approved	15.03.2017 20:32:39	1,0
6904990	9ba7af185081f004ef341679de6b9bfa310d43ef	hotels.com DE (1216)	EUR	declined	02.04.2017 08:27:54	0,0
6906187	7aa2671810e8724f90d5543d102e9ac02ccce133	ebookers.de (1635)	EUR	pending	11.03.2017 07:01:30	19,8
6929420	b3a716767eba844fba7e601818fba08de001ca8d	BahnCard und Bahn&Hotel (3101)	EUR	approved	23.03.2017 10:52:07	1,0
6932609	c89196efa224aa9fbc82c241b3c8c6c4c6671047	HAPPYCAR DE (17498)	EUR	pending	12.04.2017 10:02:19	3,3
6943841	0d5c60980754fad986c3ac6cac44c6e92a736259	TravelScout24 DE (29667)	EUR	pending	12.04.2017 12:00:00	52,5
6950675	a0fb43657e857b4c0ee5efc52c37d1b978925be1	BahnCard und Bahn&Hotel (3101)	EUR	approved	25.03.2017 13:38:00	4,0
6961556	02fc9c56608c5f0d353034dd26842a070f8485f9	BahnCard und Bahn&Hotel (3101)	EUR	approved	26.03.2017 18:13:45	1,5
6974762	e31a1aa449b4804cb01ef90d051fc674167e88c7	BahnCard und Bahn&Hotel (3101)	EUR	approved	27.03.2017 21:46:08	1,0
6978421	1ebc4f8f5906ce76d8a346cced19792260c6d691	TravelScout24 DE (29667)	EUR	pending	15.04.2017 12:00:00	32,4
7114255	7c47c41ee9affe2ac5e5e03025c18a35933e0492	FlixBus - Einfach Busfahren (10953)	EUR	approved	23.04.2017 19:39:36	0,7
7124296	0ca8b367432e9701d06de4c4660e113d737115d4	Disneyland Paris (14629)	EUR	approved	24.04.2017 06:30:05	32,2
7124306	0305cd0ea0976700671b2de17354105a5510e572	Disneyland Paris (14629)	EUR	approved	24.04.2017 06:30:05	0,6
7144893	58cbbcdc2e9b9095369d1af34dc32ea30bd8d97e	Amoma DE (245007)	EUR	approved	15.03.2017 23:11:02	0,0
7170350	6e4ba2ca28671a4d9482af2275ea2f1945c62bce	Disneyland Paris (14629)	EUR	approved	26.04.2017 10:30:07	1,2
7187909	8467db6e3d5996c932ad3d95f880b0a1151d7958	Disneyland Paris (14629)	EUR	approved	27.04.2017 06:30:06	0,4
7187929	301f9274e4afa76cf611e6100995db184a28d327	Disneyland Paris (14629)	EUR	approved	27.04.2017 06:30:06	6,1
7207903	cdbe161b313b50565a159934dc4495d515ac0a7a	Disneyland Paris (14629)	EUR	approved	28.04.2017 06:30:04	9,8
7221896	34f4682b106079e18da71c2bda23bc50b60be790	Disneyland Paris (14629)	EUR	approved	17.04.2017 06:30:05	12,8
7222195	5fa9afad42088d725b2df6b1f0f7b61ced4fe7b5	Disneyland Paris (14629)	EUR	approved	18.04.2017 06:30:04	1,7
7222356	cc337573c40d46e281d8edbc362eafd00aeba43f	Disneyland Paris (14629)	EUR	approved	30.03.2017 06:30:04	1,7
7222357	cc337573c40d46e281d8edbc362eafd00aeba43f	Disneyland Paris (14629)	EUR	approved	31.03.2017 06:30:05	1,7
7222461	38c459ad0f5e7e695639fd68012dcbe8fef79104	Disneyland Paris (14629)	EUR	approved	15.04.2017 06:30:05	0,6
7222564	8f9bd63aa875507549ed18439cb5e39a70e03352	Disneyland Paris (14629)	EUR	approved	07.04.2017 06:30:06	10,9
7222816	d58c804c76e477f4891ffc8c0b8a77899722277e	Disneyland Paris (14629)	EUR	approved	18.04.2017 06:30:04	0,2
7222817	d58c804c76e477f4891ffc8c0b8a77899722277e	Disneyland Paris (14629)	EUR	approved	18.04.2017 06:30:04	0,2
7222882	7835d79505c64ba42f9c9fe6c35e165d90e7a456	Disneyland Paris (14629)	EUR	approved	25.03.2017 07:30:04	1,2
7222901	b832fbb86e485841430d81cfa5e20f36fd75dabb	Disneyland Paris (14629)	EUR	approved	22.04.2017 06:30:05	2,0
7223081	0268baf596e5978418cf2cd77b9fcfda2a816f11	Disneyland Paris (14629)	EUR	approved	20.04.2017 06:30:05	3,4
7223220	c685f6ed84919092a5eabf0c089c9069c7299528	Disneyland Paris (14629)	EUR	approved	14.04.2017 06:30:03	4,7
7223291	7ab9d711dffab7224723ec2f68b94fe109eb251f	Disneyland Paris (14629)	EUR	approved	08.04.2017 06:30:06	0,3
7223335	922287cb138b9a3f64d38ce40dfda1f047b34d14	Disneyland Paris (14629)	EUR	approved	20.04.2017 06:30:05	1,7
7223423	8ed2cb6e825805d393f5dd5ae42b627dcf95f7dd	Disneyland Paris (14629)	EUR	approved	14.04.2017 06:30:03	5,1
7223478	7f0c5f51ab917ab61ca2c127edb9c99394e8817d	Disneyland Paris (14629)	EUR	approved	14.04.2017 06:30:03	5,2
7223494	b80f1a3831be99240b17a84ec4d711aeb5c18a9e	Disneyland Paris (14629)	EUR	approved	27.03.2017 18:30:28	3,2
7223664	058b531383f754937e7af2239e83879de8b1bc89	Disneyland Paris (14629)	EUR	approved	07.04.2017 06:30:06	1,7
7223692	c63b36ad8d293dc7007db0f8608b5207d54b65e8	Disneyland Paris (14629)	EUR	approved	22.04.2017 06:30:05	35,2
7223996	92023cc09414fe7f2ac8378214ea92d63d00e0e6	Disneyland Paris (14629)	EUR	approved	27.03.2017 18:30:28	6,7
7224072	096128df7c0d5b73db5d1310f7abb9fe4cd194ee	Disneyland Paris (14629)	EUR	approved	04.04.2017 06:30:05	0,3
7224083	77a1233f606fb20f0fc65993030458b6cc47e70e	Disneyland Paris (14629)	EUR	approved	18.04.2017 06:30:04	1,6
7224210	494ca68aa55c69421a657803c770000d91a09529	Disneyland Paris (14629)	EUR	approved	18.04.2017 06:30:04	0,7
7225919	30bcd7d1941b1dc7cbf9fed8cd0049405b877be2	weg.de (954)	EUR	approved	24.03.2017 15:59:17	22,0
7286903	6b0b068c6fcc22e3bd6d7fc9569b5afd8d5b4207	Disneyland Paris (14629)	EUR	approved	02.05.2017 06:30:05	4,2
7300197	ac6d0a997c8e11645f7c04dc98f392d348e75c0e	BahnCard und Bahn&Hotel (3101)	EUR	approved	12.04.2017 13:08:53	1,0
7300222	f089d2a8cf25e9c0329d0182f91be9631f28ead5	BahnCard und Bahn&Hotel (3101)	EUR	approved	13.04.2017 21:53:28	1,0
7320467	64c0422a408581d23cc37edd64ccbeb94a1071e6	FlixBus - Einfach Busfahren (10953)	EUR	approved	03.05.2017 06:43:26	1,5
7358928	231d70157bbf0e938d940e77fbeba747ac36233b	Disneyland Paris (14629)	EUR	approved	06.05.2017 06:30:04	0,8
7409550	2a8b7e7f9c21a2528b5f7dc7f4f899af73245b9f	BahnCard und Bahn&Hotel (3101)	EUR	approved	19.04.2017 17:50:41	1,0
7410688	ceed23d057ce77570a2434c750476487212ca8a1	koffer-direkt.de - Voll gepackt mit guten Preisen (4614)	EUR	approved	27.03.2017 16:16:54	10,0
7426909	3e5c1bf697fe9aec44824a2ad665ba0134c8af7b	Lufthansa (12016)	EUR	declined	23.04.2017 12:57:03	1,3
7426918	ec592296034ceb75110b10acf3cac317908c6d6a	Lufthansa (12016)	EUR	declined	28.04.2017 11:52:34	0,8
7427148	706933027aca0f2ad9c7e5c82df191d22a310c7f	Lufthansa (12016)	EUR	approved	30.04.2017 20:59:58	3,6
7427218	4c3c909c6bd791363bf1c1314293bdb4ccb8d774	Lufthansa (12016)	EUR	approved	19.04.2017 18:11:30	0,5
7427430	9bb30b98aef82f9d06b40d5311af2e2a62f96baa	Lufthansa (12016)	EUR	approved	29.04.2017 01:16:12	0,8
7427513	e559e686ae6bb9b9c95b95654c137f11b4d63117	Lufthansa (12016)	EUR	approved	17.04.2017 20:44:18	0,7
7427632	e35678bd5d4ae115350e1b0c2f8d6a571d873775	BahnCard und Bahn&Hotel (3101)	EUR	approved	20.04.2017 20:16:17	1,0
7427804	6ce8dc0dbf75172862e1722bbbb5e834b0705f76	Lufthansa (12016)	EUR	approved	23.04.2017 18:13:47	0,2
7428232	284f267e529f462f7febee33963f683cbde61501	Lufthansa (12016)	EUR	declined	23.04.2017 21:52:41	0,5
7428280	cccdc95eed90d8a2d14f6ff25ec16396a2bfc915	Lufthansa (12016)	EUR	declined	18.04.2017 17:14:40	1,9
7428365	63bee7f410e181037ca3e52daa42a586bf38fe7b	BahnCard und Bahn&Hotel (3101)	EUR	approved	19.04.2017 09:06:19	2,0
7432608	983365fe8c547f85bc82c5cddde1b2444b6b2dfe	hotels.com DE (1216)	EUR	declined	06.05.2017 19:46:28	0,0
7445560	3b0cd78ec28acaf92b3d596f4c9dac2617e503f9	HAPPYCAR DE (17498)	EUR	approved	26.03.2017 20:11:54	6,4
7445622	190287eb4574dda23cd5d8b5c044bd1e94598713	HAPPYCAR DE (17498)	EUR	approved	29.03.2017 18:54:59	8,6
7458065	98f62fc41dcdfbcefa85ff12bfd6d80d4b8b0cdd	TravelScout24 DE (29667)	EUR	pending	11.05.2017 12:00:00	54,2
7482639	dc4c3ab950a84d17ac4f40e4e8758005168f25b2	Disneyland Paris (14629)	EUR	approved	14.05.2017 06:30:04	2,8
7498465	a83549041b2436d7d5738118d065499361169c6a	Disneyland Paris (14629)	EUR	approved	15.05.2017 06:30:04	0,5
7513629	fb5e59928e676a04caee6b49d90d21b8b2a6da87	Disneyland Paris (14629)	EUR	approved	16.05.2017 06:30:04	1,0
7522158	3f653f37950d8287359210ec4769f8a5f2aa1bf4	BahnCard und Bahn&Hotel (3101)	EUR	approved	27.04.2017 06:26:36	1,0
7552528	4548179c4fc3023cac401fae7cf439015dbafc72	Booking.com Germany (4297289)	EUR	approved	05.04.2017 07:00:00	10,8
7552584	ebf59caa4a1680a5412381524af3b03fcf8639c5	Booking.com Germany (4297289)	EUR	approved	06.04.2017 20:11:39	10,8
7552774	3f02f3b7c97c7b48c6fd432de4cb6d8a94018d78	Booking.com Germany (4297289)	EUR	approved	24.04.2017 07:00:00	10,8
7552791	03175dfcbb0a73292d939485e07f445a57fccb58	Booking.com Germany (4297289)	EUR	approved	25.04.2017 20:20:40	10,8
7553879	a0d946076e174fa5b3927023c91c51f668e10eb7	ebookers.de (1635)	EUR	pending	20.05.2017 10:26:54	0,0
7553881	a0d946076e174fa5b3927023c91c51f668e10eb7	ebookers.de (1635)	EUR	pending	20.05.2017 10:29:05	20,7
7584260	fefebd12a779daf8a97226843f1781729c72c29d	BahnCard und Bahn&Hotel (3101)	EUR	approved	01.05.2017 12:55:16	1,0
7593436	6b1095e2d7405e844013ef226c6f174e6bf401aa	Disneyland Paris (14629)	EUR	approved	21.05.2017 06:30:04	0,1
7593437	dfd4a7c2def72533f8c2e46c1abda2208a0f0033	Disneyland Paris (14629)	EUR	approved	21.05.2017 06:30:04	0,8
7593458	eb985b598837062880cde2236ef95248f66bcb33	Disneyland Paris (14629)	EUR	approved	22.05.2017 06:30:04	66,0
7606477	792e6f3561aa90b446eeb98938d2ac253ec1ad32	Opodo DE (349)	EUR	approved	03.04.2017 15:23:17	4,5
7639640	e409a132d9983c32d688f4d352207dab84a2d493	FlixBus - Einfach Busfahren (10953)	EUR	approved	28.03.2017 12:09:15	2,1
7643312	17fbb06861bcfbea44de139c54ac904a9fc65584	hotels.com DE (1216)	EUR	approved	10.03.2017 09:25:14	1,3
7643591	544ea9885ff0a65dc7253bcd2434af9c8da37a66	ebookers.de (1635)	EUR	declined	08.05.2017 12:30:28	5,6
7670631	73c67be09e155bb931f0c184f41ffc906e87af8e	BahnCard und Bahn&Hotel (3101)	EUR	approved	08.05.2017 12:37:58	1,0
7704084	aa5ea98681746dee9d4a861ef98c37676b887c3f	BahnCard und Bahn&Hotel (3101)	EUR	approved	10.05.2017 19:35:23	1,5
7704124	08c967ce01233e1f7f43c7abb6ea1f8dbf0cdb5f	BahnCard und Bahn&Hotel (3101)	EUR	approved	10.05.2017 20:21:07	1,0
7711594	f717742649650a901a964240742f6fd0682b4a37	Disneyland Paris (14629)	EUR	approved	30.05.2017 06:30:03	3,7
7729683	e0ca8ab3f910baa242a475d732e712f73c12b0a5	Disneyland Paris (14629)	EUR	approved	31.05.2017 10:30:05	1,6
7738166	ec470b8535f80c5c16612d02014e8c98c0bc7070	BahnCard und Bahn&Hotel (3101)	EUR	approved	10.05.2017 22:19:44	1,0
7756199	4410219e77595f7e828e2f1f628a6ba866e85903	Booking.com Germany (4297289)	EUR	pending	02.06.2017 21:21:46	10,8
7759627	2d12b6c804a3a2120db74c76d5bf02bc197fcd2d	hotels.com DE (1216)	EUR	declined	27.04.2017 08:24:05	0,0
7761143	b1c2846b34f957047c917dde0bb9927503f4e47c	Disneyland Paris (14629)	EUR	approved	02.06.2017 06:30:05	2,4
7761144	1f346f8ca3fe1b87815421ea992c7888204a0e23	Disneyland Paris (14629)	EUR	approved	02.06.2017 06:30:05	1,1
7787248	1cb3e4ef2c463dee474be1126da44988125b6543	BahnCard und Bahn&Hotel (3101)	EUR	approved	15.05.2017 08:32:58	4,0
7793120	78a1b40643c4f7f5e3159f86c1ef3d02537ea91f	Disneyland Paris (14629)	EUR	approved	04.06.2017 06:30:03	3,9
7793121	831f7f97e7a4de9569cd95de4a88086a84657514	Disneyland Paris (14629)	EUR	approved	04.06.2017 06:30:03	0,4
7809858	4bd912a71e6b4d902d20e424bd1fd934f7fbb577	hotels.com DE (1216)	EUR	approved	24.03.2017 21:24:05	4,7
7850594	72757f9197ff8017c7e9a64ab5ad5f3116873335	Disneyland Paris (14629)	EUR	approved	07.06.2017 06:30:04	39,7
7875562	8a8718bfaf36d5e32036c38e7c2194bfd10b9f6b	airberlin.com (15718)	EUR	approved	11.04.2017 19:36:41	0,5
7875960	84466c015de5c9035f30d6b35f5b08a9b846d916	BahnCard und Bahn&Hotel (3101)	EUR	approved	20.05.2017 06:46:21	3,0
7876148	1372fe8a4dc826365566b562c34b8412d9cef43f	ThomasCook.de - Ihr Online-Reiseburo (3578)	EUR	approved	26.04.2017 19:14:37	55,0
7880985	c431cd29b4919c3abac2f5bb7f586f231a1a54b6	Disneyland Paris (14629)	EUR	approved	09.06.2017 06:30:04	4,2
7906947	2fe0a5da850747bf1892ed07ac09e08c79a9519c	BahnCard und Bahn&Hotel (3101)	EUR	approved	22.05.2017 09:07:14	3,0
7919950	d2615be1b67f33808e7b88f8df86b421197f29c4	Travador.com (12456)	EUR	approved	06.06.2017 20:23:06	67,8
7924855	9c507de6604f1668cce637466261187997da2ba8	Madame Tussauds DE (15445)	EUR	approved	23.05.2017 13:18:59	2,2
7935475	a0d946076e174fa5b3927023c91c51f668e10eb7	Lufthansa (12016)	EUR	approved	10.05.2017 16:49:01	2,7
7935608	deff3f61e154f5ecc0b852840f1d674b21387e0f	Lufthansa (12016)	EUR	declined	05.05.2017 15:23:18	1,6
7935950	4efbfacba0edfbf0186d515969161864945324df	Lufthansa (12016)	EUR	approved	03.05.2017 16:11:54	3,9
7936179	02e4d9d1d196da06691138c40deb71a2b77e1ce2	Lufthansa (12016)	EUR	approved	30.05.2017 13:47:43	0,9
7951182	d07aec9d95fcfb2860abe40f7540c16b98247c92	Condor - Wir lieben Fliegen! (3572)	EUR	approved	16.04.2017 18:41:24	5,0
7956774	aaad2032262952320e42245d44026f3f82f71641	Disneyland Paris (14629)	EUR	approved	14.06.2017 06:30:03	0,9
7957632		Stage Entertainment - Musicals und Shows (20703)	EUR	approved	29.05.2017 13:58:20	14,0
7980204	1f7f0719cdb2467c95a6b47d5f05afc4925990a4	DriveNow GmbH & Co. KG (10339)	EUR	approved	17.04.2017 07:16:21	4,5
7989312	d8de5137dfad315e30386d64434846ec92302e6f	weg.de (954)	EUR	approved	11.05.2017 22:06:56	22,0
7999730	5bce45d2116029d7777c8d587ea75f5857c227b5	Booking.com Germany (4297289)	EUR	declined	14.04.2017 07:00:00	10,8
7999731	5bce45d2116029d7777c8d587ea75f5857c227b5	Booking.com Germany (4297289)	EUR	declined	14.04.2017 07:00:00	10,8
7999944	ccb4165eeef3a58df280154a630c27940d217657	Booking.com Germany (4297289)	EUR	approved	05.05.2017 21:53:31	10,8
8030252	1e4da7cd2f9de99a51abddc992f4fe7d2766b763	BahnCard und Bahn&Hotel (3101)	EUR	approved	30.05.2017 09:57:48	5,7
8038229	42b51e1e66e382f3c1612a65d0972d636bb677b3	Disneyland Paris (14629)	EUR	approved	19.06.2017 06:30:03	0,5
8089772	b44cd4163e3c82527339125f61f55ff2ab35109e	HAPPYCAR DE (17498)	EUR	approved	10.04.2017 15:40:16	16,8
8100940	f0b824677de0881f5e4960a7a9f18da65ccd5c97	Expedia.de (400)	EUR	approved	15.04.2017 08:00:20	52,5
8102864	ac35ba9519fcdf7b739e89692d6719f03ad6362b	weg.de (954)	EUR	approved	18.05.2017 22:39:06	6,5
8128413	75229bd9c41e656ab539d972aeb46c8e4dd9c744	airberlin.com (15718)	EUR	approved	27.04.2017 18:56:31	0,5
8130020	29206de05207d91d90acca1ecf900d5464cfffb4	Booking.com Germany (4297289)	EUR	pending	25.06.2017 14:22:10	10,8
8144432	adddd32e0c0a14ee1a9b4579551047c4395c1d8e	BahnCard und Bahn&Hotel (3101)	EUR	approved	06.06.2017 19:16:52	1,0
8212366	53a3c9064b9a0a75390ba6d97a3aadde2d0af544	hotels.com DE (1216)	EUR	approved	22.06.2017 08:47:59	1,2
8213433	846b83cb2edc114acc2de1e7e7616c7ade51acae	Disneyland Paris (14629)	EUR	approved	29.06.2017 06:30:04	4,4
8213434	673e9cb6a653d76058d2c2a79ad02dee8ac3f04d	Disneyland Paris (14629)	EUR	approved	29.06.2017 06:30:04	0,4
8258623	4f5376a5e9f7f458e30ede9fd98d5ed94af407d2	BahnCard und Bahn&Hotel (3101)	EUR	approved	12.06.2017 12:21:26	2,0
8263001	fe50c0e3d9803d0ae53e3a0f5cb662be7c7be17e	Expedia.de (400)	EUR	pending	02.07.2017 21:33:34	4,5
8296944	bdb5f17624547a93c0c6c9dc34ccd0be44cc50e8	Holiday Autos (4532902)	EUR	pending	08.05.2017 07:00:00	2,0
8300154	9ba7af185081f004ef341679de6b9bfa310d43ef	hotels.com DE (1216)	EUR	approved	30.04.2017 17:52:15	17,7
8300291	ecddf6c671ee96d88189557423180e2e1272f9ef	koffer24 DE (13574)	EUR	approved	05.05.2017 20:26:31	5,5
8338563	1895cd62dd3f5c122038667bdacbe454f04e7457	ebookers.de (1635)	EUR	declined	02.04.2017 15:18:49	5,8
8339841	cfa1e08d10359365869fbec43b73bf69357ceb15	ebookers.de (1635)	EUR	approved	21.06.2017 21:50:19	11,9
8351760	4d284826a05884badb463ab9379dbb5528113022	ebookers.de (1635)	EUR	approved	11.03.2017 09:46:20	2,6
8351763	4aacb8f0426402fbfda94098204e84ac5aeae67a	ebookers.de (1635)	EUR	approved	12.03.2017 15:29:16	1,5
8391113	a18e33b82d8048fcaa33f2cb680a1510d6e2c1e9	BahnCard und Bahn&Hotel (3101)	EUR	approved	20.06.2017 12:58:01	2,0
8391126	1c251c31d40b1f82dcdcc78839514a31859683a2	BahnCard und Bahn&Hotel (3101)	EUR	approved	20.06.2017 04:38:46	2,0
8400108	d967b2ae5e9b83608edb2e1ee1a367d3c3f033a5	hotels.com DE (1216)	EUR	approved	07.07.2017 12:01:44	9,7
8435674	b8f50b613e0abbd1ed1a40a178ff7791ada3324e	INTERNATIONAL PROGRAM VUELING (3659001)	EUR	pending	12.07.2017 09:21:45	4,1
8439171	0b4481b2611b8c0b82518f0aa0c6e1dee14f1315	Disneyland Paris (14629)	EUR	approved	12.07.2017 10:30:07	47,0
8448111	1d3a8e22cc1e758a51fd509e0b115254dcecaa33	Travador.com (12456)	EUR	approved	07.07.2017 19:08:01	44,9
8448536	37686846caabfc50ac8dc43702fa3128cdac9ee3	Lufthansa (12016)	EUR	declined	08.06.2017 19:35:53	2,8
8448567	0b8077c7dbd4ab002d1e354b076dab18706f1f26	Lufthansa (12016)	EUR	declined	03.06.2017 10:06:52	1,0
8448778	5fb8305cae5c8120cf2d4283a14a7d29ec828fce	Lufthansa (12016)	EUR	declined	08.06.2017 07:44:46	0,5
8448970	009443158b5cc40bd1fdd502ad46133d85177583	Lufthansa (12016)	EUR	approved	08.06.2017 21:06:24	3,0
8449045	57bab7f9bddc11bc03695bf540cbe63285330e77	Lufthansa (12016)	EUR	approved	15.06.2017 12:56:50	0,8
8461662	7bd63437bfeeb8819f58456f3fb0498c9fad1334	BahnCard und Bahn&Hotel (3101)	EUR	approved	24.06.2017 11:40:14	2,0
8473555	2e3e395530809ba84e72d04fb1eedbd280240205	BahnCard und Bahn&Hotel (3101)	EUR	approved	25.06.2017 12:05:11	2,0
8491131	5806837bdad29848ce3b49cbf6e8e2e4b88c29cf	Disneyland Paris (14629)	EUR	approved	16.07.2017 06:30:05	0,9
8491132	958aedd1c531860c669da0fe408add2ded3af30d	Disneyland Paris (14629)	EUR	approved	16.07.2017 06:30:05	2,1
8501362	98a2b5d7f51b3d224d48f133fc19e1f4c4d89fc3	A&O HOTELS and HOSTELS (8329)	EUR	pending	17.07.2017 07:33:07	9,2
8502583	513c98631b46f6eb84b5e9358b4a6db6e08f597a	TUI.com - Zeit für neue Ziele (9881)	EUR	approved	19.05.2017 09:19:16	55,0
8520787	d5a4036f80c03f6d267250e2688944ae4f399212	BahnCard und Bahn&Hotel (3101)	EUR	approved	28.06.2017 17:07:32	1,5
8526636	17f12290e7c31f97fe4322363bb4dd6d3e2649aa	Expedia.de (400)	EUR	approved	10.06.2017 14:52:58	11,5
8527829	ca3889e8c4872a4e3af06edd51403f8c1c243bdc	Disneyland Paris (14629)	EUR	approved	18.07.2017 06:30:05	1,3
8528434	b277160674001692d0b0ea6129a258a3f8cd517f	Stage Entertainment - Musicals und Shows (20703)	EUR	approved	02.07.2017 19:40:27	12,6
8545609	9ac82de759a8590d6dc6405abce0250b4bbeb28f	Disneyland Paris (14629)	EUR	approved	19.07.2017 10:30:09	2,4
8569910	2a52a7c3ba73b7f92fa387575fe4b9bd46716b0d	A&O HOTELS and HOSTELS (8329)	EUR	pending	21.07.2017 17:43:56	1,9
8573737	17f12290e7c31f97fe4322363bb4dd6d3e2649aa	Expedia.de (400)	EUR	approved	10.06.2017 15:16:49	17,8
8583368	31d41e4a3f90586db0a1bec2350a13391f2ee814	BahnCard und Bahn&Hotel (3101)	EUR	approved	02.07.2017 16:02:11	2,0
8586308	c8920a70ba9d88f8d6840c011cda1835fff3fbc4	hotels.com DE (1216)	EUR	approved	02.04.2017 18:50:28	8,3
8597488	c8dcdb198605d48176d9edeefe4c977203f46edf	BahnCard und Bahn&Hotel (3101)	EUR	approved	03.07.2017 20:14:00	3,0
8602766	4e1f356a723129b1c27d9d3e7fdb60865f69f258	Disneyland Paris (14629)	EUR	approved	23.07.2017 10:30:09	1,0
8612809	f2b93b50c9393ce4809dc847fcee31dba204194b	Hotel.de DE/AT (16403)	EUR	pending	24.07.2017 20:15:36	7,6
8616845	5d4c8f4ae135e4c2040e2807c7dd50228f89eec7	ebookers.de (1635)	EUR	approved	30.06.2017 20:42:08	0,0
8617004	5d42072dc61db400992556537723384661203edb	ebookers.de (1635)	EUR	approved	21.07.2017 09:01:37	0,0
8632343	07929a286c8bfc7442168bbf324a949f49405d8f	Expedia.de (400)	EUR	approved	05.06.2017 10:19:07	5,0
8633472	1eacbdf747e3b132d2a385cadf13be7d4ec4e650	Disneyland Paris (14629)	EUR	approved	25.07.2017 10:30:09	18,1
8648869	9593c8eb728c727c14547dcadd1dc8bd034a23ea	LTUR - Nix wie weg (17566)	EUR	approved	24.04.2017 17:55:12	7,3
8650310	4e1f356a723129b1c27d9d3e7fdb60865f69f258	Disneyland Paris (14629)	EUR	approved	26.07.2017 10:30:10	0,7
8661265	325b8a63ed898991d699ac11a8a9a9fbe8d50b0b	FlixBus - Einfach Busfahren (10953)	EUR	approved	26.07.2017 10:02:39	1,1
8661472	9dfc0c4aaac11681319c542612edb7701d2bd7fb	TUI.com - Zeit für neue Ziele (9881)	EUR	approved	13.06.2017 19:38:51	55,0
8669292	03534ec9b22c559410b03a62e04e6b737c7c2520	Disneyland Paris (14629)	EUR	approved	27.07.2017 10:30:14	78,0
8695558	558e58c2baeb643de70067b21a904face0ac16ba	Tripadvisor DE (15603)	EUR	approved	18.06.2017 03:48:21	0,4
8695559	558e58c2baeb643de70067b21a904face0ac16ba	Tripadvisor DE (15603)	EUR	approved	18.06.2017 03:50:23	0,5
8695854	4bd912a71e6b4d902d20e424bd1fd934f7fbb577	hotels.com DE (1216)	EUR	pending	29.07.2017 14:35:20	2,3
8738820	c91374219c387426f8c98ea313be29ed2f9ea479	HAPPYCAR DE (17498)	EUR	approved	20.07.2017 20:29:52	4,7
8740403	835d672cde349f0a959fdcc89144a1cce868cc29	Disneyland Paris (14629)	EUR	approved	31.07.2017 10:30:14	2,5
8751957	ceea4691bc3a37a1f46608434384a944c3589ce3	BahnCard und Bahn&Hotel (3101)	EUR	approved	12.07.2017 08:30:20	2,0
8752255	b09ad6aac7b8b3f611ca147d7d3fa53a0d5d67d1	BahnCard und Bahn&Hotel (3101)	EUR	approved	11.07.2017 19:34:35	1,5
8752368	a85b9d47dcad1bffc59dec2aef59c27d7f2306a0	BahnCard und Bahn&Hotel (3101)	EUR	approved	12.07.2017 15:54:10	2,0
8755456	c5a6bbfdfa587620ee96d20e863727ade47a4f1a	Booking.com Germany (4297289)	EUR	pending	01.08.2017 05:51:54	10,8
8769056	9125595d288da4908b7b818f485b63da8d3bf47d	FlixBus - Einfach Busfahren (10953)	EUR	approved	30.07.2017 08:47:18	1,0
8769057	9125595d288da4908b7b818f485b63da8d3bf47d	FlixBus - Einfach Busfahren (10953)	EUR	approved	30.07.2017 09:02:05	1,8
8769554	b54ac2e06355438661d41b2c7f50d803fadc2282	BahnCard und Bahn&Hotel (3101)	EUR	approved	12.07.2017 22:10:09	2,0
8773869	e6b09bc615fc87b691c8803698e5c91585e4020d	Disneyland Paris (14629)	EUR	approved	02.08.2017 10:30:08	0,1
8773870	48a4aab7d5ef2a052d049b66a3231ea743ea9782	Disneyland Paris (14629)	EUR	approved	02.08.2017 10:30:09	166,4
8782898	6c2a7abb8f6f198967a264eb221eaa0bdf3faa57	BahnCard und Bahn&Hotel (3101)	EUR	approved	14.07.2017 08:50:45	1,5
8816830	8783d7586030e04da5106601d3e61e22394b35a0	BahnCard und Bahn&Hotel (3101)	EUR	approved	16.07.2017 19:39:08	2,0
8819400	44acb7d05961cf884af9d7b85f47f0b979098f99	Disneyland Paris (14629)	EUR	approved	05.08.2017 10:30:11	0,5
8832625	aaee8edf57049e60e152f71a73c5e7898e5cb667	Disneyland Paris (14629)	EUR	approved	06.08.2017 10:30:12	0,7
8843116	03a16117677b5978bf0da82e8ad5270d8137ce7a	BahnCard und Bahn&Hotel (3101)	EUR	approved	18.07.2017 13:23:59	3,0
8843137	117b91f6de8c1265854478a0cea4d4e7a380d212	BahnCard und Bahn&Hotel (3101)	EUR	approved	18.07.2017 16:08:17	4,0
8847298	e8a365261f811e290bb4eff856530736ead46272	HAPPYCAR DE (17498)	EUR	approved	09.07.2017 08:02:57	8,0
8848217	4bd912a71e6b4d902d20e424bd1fd934f7fbb577	hotels.com DE (1216)	EUR	pending	07.08.2017 19:07:39	4,5
8859825	1630e8e2ce857021906a887479cbf1824f76b387	BahnCard und Bahn&Hotel (3101)	EUR	approved	19.07.2017 06:45:50	2,0
8862419	003c26b3631346b26fdc50043e8094330d0ac5b1	Booking.com Germany (4297289)	EUR	pending	08.08.2017 14:50:44	10,8
8864249	1895cd62dd3f5c122038667bdacbe454f04e7457	ebookers.de (1635)	EUR	approved	02.04.2017 15:05:25	6,7
8864251	1895cd62dd3f5c122038667bdacbe454f04e7457	ebookers.de (1635)	EUR	approved	02.04.2017 15:31:08	5,3
8864408	37099bdab7c0170548e12ce0b73bb47e3596d447	ebookers.de (1635)	EUR	approved	11.05.2017 12:07:22	5,8
8864419	bb3aa5750003e055ffffad63ccd6bf1ad2e2ea6e	ebookers.de (1635)	EUR	approved	13.05.2017 17:17:39	2,1
8866526	c00935c2c97ba8753380972467bacc8f95bec161	Stage Entertainment - Musicals und Shows (20703)	EUR	approved	12.07.2017 19:55:09	5,9
8866535	5e6848067322d9de2a334f8fd6a78bd2064c11d2	Stage Entertainment - Musicals und Shows (20703)	EUR	declined	14.07.2017 16:36:26	12,0
8866605	10ce0a5b51eebcc68d0aeaf73cf5346ccdb80090	Stage Entertainment - Musicals und Shows (20703)	EUR	declined	24.07.2017 21:49:46	15,5
8874929	b8119b3b68e7157401f382052821d46e9a06086f	airberlin.com (15718)	EUR	pending	09.08.2017 10:17:02	0,5
8895980	2123ac0656422e983869790078aabccbdd93cc28	Disneyland Paris (14629)	EUR	approved	10.08.2017 10:30:09	0,6
8909173	b34ca44be65e5e357a300f3de82dbda8ae9f9d12	Disneyland Paris (14629)	EUR	approved	11.08.2017 10:30:07	1,7
8919842	74954734311bf7d098a0854cf711536b668c62d7	Expedia.de (400)	EUR	approved	29.07.2017 21:04:23	32,4
8933619	11de2ace13b1092faf5557f4d5946bd494540955	Hoppa DE (4248049)	EUR	pending	15.08.2017 19:59:50	4,1
8933624	11de2ace13b1092faf5557f4d5946bd494540955	Hoppa DE (4248049)	EUR	pending	15.08.2017 21:26:23	8,2
8937427	ba05b0d94ae4b6724ef618e1edc6a7add6bf8887	HAPPYCAR DE (17498)	EUR	approved	20.07.2017 16:07:20	15,4
8956549	fbe19c884265d5f930cb9f8730bd80f281e55442	hotels.com DE (1216)	EUR	approved	14.05.2017 15:57:56	50,1
8958216	f294866e32e59759b38a6c1ddd30f9884f36b966	Disneyland Paris (14629)	EUR	approved	16.08.2017 10:30:08	54,7
8967135	b7a9b3d09faeeb97c6741c1a5f76cd0cf114001a	BahnCard und Bahn&Hotel (3101)	EUR	approved	28.07.2017 08:19:33	4,0
8968739	2d2a199264da52d509a22f097a1bbcc396ca1371	Booking.com Germany (4297289)	EUR	pending	17.08.2017 07:54:17	10,8
8976735	040e8461e5d700971c66fec65aca5d5270521242	HAPPYCAR DE (17498)	EUR	pending	17.08.2017 20:31:34	5,1
8976748	040e8461e5d700971c66fec65aca5d5270521242	HAPPYCAR DE (17498)	EUR	pending	17.08.2017 20:49:54	4,5
8984739	7fdcf9ab37bc83a1cf68fe2fc2f56d20b074d029	NoLimits24 Erlebnisagentur (6433)	EUR	approved	06.07.2017 06:45:13	20,0
8985653	63c83a4f22e683151b46e11dd915f36d5100140e	Booking.com Germany (4297289)	EUR	pending	18.08.2017 16:57:15	10,8
9001492	8c625ae4cd089ab3160b606a6d9b6bb14b627cb9	HAPPYCAR DE (17498)	EUR	pending	19.08.2017 20:31:40	7,2
9012929	90e16234e0918c1d00031785199deb35bb67268e	Booking.com Germany (4297289)	EUR	pending	20.08.2017 20:39:24	10,8
9016037	477fc8bcdcf065250c4690fbabd7d1f414d35182	Opodo DE (349)	EUR	approved	01.07.2017 13:18:58	4,5
9027990	5c9410ebed225637c18ec8f5bb5302da6a464911	Booking.com Germany (4297289)	EUR	pending	13.08.2017 17:15:54	10,8
9028429	178e4d066b05f5734c2fcf481617e2144db13abf	HAPPYCAR DE (17498)	EUR	approved	20.07.2017 18:37:20	30,5
9028704	1e914a949f331ad65626b5d4e3146aff05d2aa43	HAPPYCAR DE (17498)	EUR	pending	14.08.2017 11:29:05	28,4
9030916	3a52cb3d7b26977e1536daee243a4f188b14d38c	Stage Entertainment - Musicals und Shows (20703)	EUR	declined	31.07.2017 19:44:41	15,6
9044125	5b07018885fbd9e9c368d8ad62e57587bcad75e5	ebookers.de (1635)	EUR	approved	21.06.2017 17:33:20	5,0
9044128	5b07018885fbd9e9c368d8ad62e57587bcad75e5	ebookers.de (1635)	EUR	approved	21.06.2017 18:39:11	8,0
9044457	7aeb201e9b44e58cc40ac858c3f892311da11855	ebookers.de (1635)	EUR	approved	07.07.2017 06:42:19	17,4
9044889	c91374219c387426f8c98ea313be29ed2f9ea479	HAPPYCAR DE (17498)	EUR	declined	16.07.2017 13:09:43	5,1
9045769	92c132f2c2fb12fbd62a9a0898f3f35fadaa0866	HAPPYCAR DE (17498)	EUR	declined	08.08.2017 10:51:05	4,3
9061575	fc72c8e1bef5444da6aa0e7382e441977905defe	HAPPYCAR DE (17498)	EUR	declined	25.07.2017 16:49:17	5,3
9061584	fc72c8e1bef5444da6aa0e7382e441977905defe	HAPPYCAR DE (17498)	EUR	approved	26.07.2017 19:02:37	6,6
9062313	89c5412ccf0cc923c9055a1f51cf8c0fb0ad877b	Disneyland Paris (14629)	EUR	approved	22.08.2017 06:30:05	0,4
9086789	2d83fcc8ea2d350ee8f1f840a32b24b837b00f25	Amoma DE (245007)	EUR	pending	24.08.2017 12:21:38	0,0
9089264	c7dd4b1654d8f0076f90fa1eb24e0c82df56b95f	Koffer-Arena.de (6927)	EUR	approved	30.06.2017 15:59:01	4,6
9095222	2576d028600a9efc4e39696079456b38af5ddc97	HAPPYCAR DE (17498)	EUR	approved	08.08.2017 07:39:17	15,8
9095968	b163d5ebda00a435c31a045245e06f7a68b551ea	Disneyland Paris (14629)	EUR	approved	24.08.2017 10:30:09	3,9
9106907	fb3963ea9f6ed330bd678b57b822f9e50cdc392b	Expedia.de (400)	EUR	approved	20.08.2017 06:33:05	6,5
9107430	f9015b14a2e29d914222109a795999979dcb3444	Opodo DE (349)	EUR	pending	25.08.2017 19:14:32	4,5
9133842	5b07018885fbd9e9c368d8ad62e57587bcad75e5	ebookers.de (1635)	EUR	pending	27.08.2017 09:55:03	5,5
9145595	963530e924bfa302018a098252c6e31d1ae1befd	Lidl - Online-Shop, Reisen, Fotos & Blumen (5050)	EUR	approved	23.07.2017 12:34:45	33,8
9153529	28eb22951d05af9290153275738dd35d48572c17	HAPPYCAR DE (17498)	EUR	declined	23.04.2017 08:21:32	10,5
9153699	7aeb201e9b44e58cc40ac858c3f892311da11855	ebookers.de (1635)	EUR	approved	07.07.2017 07:35:19	22,7
9153931	335d960305890e95dbde376d3db62a12737f4fb1	HAPPYCAR DE (17498)	EUR	approved	28.07.2017 08:17:46	19,1
9153953	2f4eecacbc8504f3eec057aeb11360a84c0116cb	ebookers.de (1635)	EUR	declined	01.08.2017 14:33:05	5,5
9153980	2501e94626a8ac3201a4e5c2a42d26a539d8bc4d	ebookers.de (1635)	EUR	approved	03.08.2017 13:07:00	1,8
9154230	fac12dfb836333d919e464f9ef814ecb135da536	HAPPYCAR DE (17498)	EUR	approved	15.08.2017 19:14:55	7,8
9155155	ba6ad4b4b26fa7817cd5df20cb8e11fee6b3be4b	Disneyland Paris (14629)	EUR	approved	27.08.2017 06:30:04	2,3
9166912	e18d9a43a1e0835575e0ccdd1750a6d80571a3a5	BahnCard und Bahn&Hotel (3101)	EUR	approved	09.08.2017 15:03:37	1,0
9167680	93666e029ec254e7ce9dd4704b527745f7bfbc7c	BahnCard und Bahn&Hotel (3101)	EUR	approved	08.08.2017 11:37:38	4,0
9189221	e5f0cf3cabf0811e18aea136c91fa3fed6841d11	BahnCard und Bahn&Hotel (3101)	EUR	approved	10.08.2017 17:39:43	3,0
9195960	5eaf95552a469405232bdfbc6f3d9b0040b94b85	HAPPYCAR DE (17498)	EUR	approved	16.07.2017 20:35:13	19,6
9196836	7f8ce7b405ea4fbe2f3d50f7f2a82afaaa6dbca4	HAPPYCAR DE (17498)	EUR	approved	22.08.2017 19:49:02	5,7
9197172	61a41a2dcd0531118d6665fa278d4f24118b3182	HAPPYCAR DE (17498)	EUR	pending	30.08.2017 14:57:23	25,0
9197571	01b1b0f41a3adf6fd5f58f8a5095399c8924640f	Disneyland Paris (14629)	EUR	approved	30.08.2017 10:30:04	3,1
9216286	f886726273c40ca7c78ce8b55862aae3838ff354	HAPPYCAR DE (17498)	EUR	declined	24.07.2017 20:30:05	3,7
9216598	3e5bf564e18fc7e8455543f5f2393fcd9b02bf27	HAPPYCAR DE (17498)	EUR	declined	08.08.2017 17:06:19	11,0
9216616	3e5bf564e18fc7e8455543f5f2393fcd9b02bf27	HAPPYCAR DE (17498)	EUR	approved	09.08.2017 13:00:46	7,9
9216698	fadb8c1e113f3309f450957214b271db3909a348	HAPPYCAR DE (17498)	EUR	approved	18.08.2017 10:41:07	1,1
9217118	6d031c1ad7b077edf954dc3e10282fe7f4b1b102	HAPPYCAR DE (17498)	EUR	pending	31.08.2017 17:00:36	7,0
9229723	ded9fb9736950810457429b61d9a20dc69357c64	Booking.com Germany (4297289)	EUR	pending	13.08.2017 07:00:00	10,8
9229726	b10fd10a14d2d1503a5072a9cb19631a391da211	Booking.com Germany (4297289)	EUR	pending	19.08.2017 07:00:00	10,8
9229727	f0f1fc587ee423b0f47ccecdbd703b99b2cae03d	Booking.com Germany (4297289)	EUR	pending	19.08.2017 07:00:00	10,8
9229729	3849dfa7bf3705aae8115b06c1e8c054364ecebf	Booking.com Germany (4297289)	EUR	pending	21.08.2017 07:00:00	10,8
9231653	ed46193c17b2a1562e5f0d10f2942b864e308d8e	ebookers.de (1635)	EUR	approved	02.08.2017 23:50:10	34,7
9232275	17f730bc21fb079d5466162ec1bc56a64b55375c	hotels.com DE (1216)	EUR	pending	01.09.2017 18:14:14	8,9
9245289	b69ae4d7563315c94a5859f8c9d8b2c6effb63b5	ebookers.de (1635)	EUR	pending	02.09.2017 20:57:53	0,0
9245408	40b126e018c759a1ad3b1f9656f0ca07079f17b9	Disneyland Paris (14629)	EUR	approved	02.09.2017 06:30:05	2,1
9260502	e153280824ed97c06133410ca380217eee0e3288	HAPPYCAR DE (17498)	EUR	pending	03.09.2017 14:11:09	4,6
9261035	ba7f7f85d2196f4a5995a618dad49c16cbacaebf	Disneyland Paris (14629)	EUR	approved	03.09.2017 06:30:06	6,5
9273041	ff519119fa0889ee617a26020056b0298afff8b8	koffer.de (14272)	EUR	approved	26.07.2017 20:35:34	3,5
9275005	819057d9656f45b51bba388360067a008c7d20ae	Booking.com Germany (4297289)	EUR	pending	04.09.2017 21:31:15	10,8
9276638	940376f8a179475ece26ae435c99b3c96772c0af	HAPPYCAR DE (17498)	EUR	approved	14.08.2017 18:39:30	5,2
9276659	53a7f91bb88418a2290d3a8f3999d5d02651db83	HAPPYCAR DE (17498)	EUR	approved	17.08.2017 10:44:17	7,7
9293210	5b07018885fbd9e9c368d8ad62e57587bcad75e5	Expedia.de (400)	EUR	approved	24.08.2017 19:21:38	29,6
9323650	27cbd078fd9d042e06125c7546ce00dff18c3937	HOTEL DE (2033)	EUR	approved	04.04.2017 20:11:38	10,6
9324504	bffb004c0b2e44c2144ed19c6f93c198d1aa477e	HAPPYCAR DE (17498)	EUR	approved	04.08.2017 22:10:48	4,1
9324542	ad29da52df4f5bdad2eb0f0e24eb879f73e56d9f	HAPPYCAR DE (17498)	EUR	approved	14.08.2017 20:25:36	8,2
9324683	9e2167adc886e728d4abe39794671cd4d5024af3	HAPPYCAR DE (17498)	EUR	pending	07.09.2017 08:50:13	17,7
9324839	bd9b44334ec79dd4295071ef7b94c404460fcf60	HAPPYCAR DE (17498)	EUR	pending	07.09.2017 13:20:02	6,0
9324873	e8d69d8562bd8a4a2dc43525f655dfe3246fef69	HAPPYCAR DE (17498)	EUR	pending	07.09.2017 14:22:31	20,7
9352185	81e8590faaa1280acb2a59cbdf539f53e6f53a1e	Disneyland Paris (14629)	EUR	approved	09.09.2017 10:30:03	2,9
9352186	87ff0ef6c6fcbf6b295095f82958480ac2557025	Disneyland Paris (14629)	EUR	approved	09.09.2017 10:30:03	10,9
9364403	c7662232f9b0b5368023a6d8fc02ca094f78dc6d	Booking.com Germany (4297289)	EUR	pending	10.09.2017 06:41:57	10,8
9376762	9546ecd3ac88930c2d7d3188c079613cd529f91c	BahnCard und Bahn&Hotel (3101)	EUR	pending	11.09.2017 18:19:15	0,1
9376798	930f5b736bbd67827df276c77bbb3a678146da49	BahnCard und Bahn&Hotel (3101)	EUR	approved	22.08.2017 13:10:28	1,0
9377224	72b1ebaa983dc855dc00654ca2362488f0a3dc83	BahnCard und Bahn&Hotel (3101)	EUR	approved	22.08.2017 18:29:25	1,0
9383079	184d2ed6982b2b6ebfcaff3d62f0960679dbffc2	HAPPYCAR DE (17498)	EUR	pending	11.09.2017 15:22:35	6,6
9383083	9e06b8034853858e07fd54bc2e1c31326c8d7be3	HAPPYCAR DE (17498)	EUR	pending	11.09.2017 15:24:13	6,2
9384442	4970e6c5902afbbf0511bc9e54d0b0901c638249	Stage Entertainment - Musicals und Shows (20703)	EUR	pending	11.09.2017 22:10:50	18,8
9394017	0eccbb4a904e9ba81adfba967226ea0868a42c82	BahnCard und Bahn&Hotel (3101)	EUR	pending	12.09.2017 08:13:58	1,0
9400337	914b734feb23d29622bec5a2fa0b4da968138145	HAPPYCAR DE (17498)	EUR	pending	12.09.2017 14:02:22	16,5
9401753	150fc4a405aef2cd03c4e0673dc3183b1f74a261	Stage Entertainment - Musicals und Shows (20703)	EUR	approved	17.08.2017 18:37:21	16,6
9401772	eb882498d0b4114ed1f8da9a14be627afef24f47	Stage Entertainment - Musicals und Shows (20703)	EUR	declined	11.08.2017 22:17:06	10,5
9401941	c2de0460dae62b4ece5759aede5dd489e1b7c72c	weg.de (954)	EUR	pending	12.09.2017 17:10:18	22,0
9401942	0b7080e16d72b4968ce69d0453306742728209c7	mydays (915)	EUR	pending	12.09.2017 18:12:56	1,2
9401943	c2de0460dae62b4ece5759aede5dd489e1b7c72c	weg.de (954)	EUR	pending	12.09.2017 17:18:34	22,0
9412000	6b0e9a413c8508c4cb4ea729d92c0e7f350228c5	BahnCard und Bahn&Hotel (3101)	EUR	pending	13.09.2017 05:41:10	1,0
9412259	8924752e5b12b7da483032a9d27fa507eaa0f2e8	Travador.com (12456)	EUR	approved	07.09.2017 08:37:35	18,3
9413400	eeb11e905634d0213b2b100d7c2b28f4f2075729	Booking.com Germany (4297289)	EUR	pending	13.09.2017 18:33:50	0,0
9415609	f424d7723edc2df6979b85b59e44e07458124da0	ebookers.de (1635)	EUR	approved	07.07.2017 12:43:49	10,2
9416954	471dc8be978ce5a08922a82555ff1442f6cc3781	HAPPYCAR DE (17498)	EUR	pending	13.09.2017 18:18:26	7,0
9430164	7876005615c8050bd8b3ad77db69190ec3ee5117	Lufthansa (12016)	EUR	approved	17.08.2017 19:24:34	3,6
9430165	7876005615c8050bd8b3ad77db69190ec3ee5117	Lufthansa (12016)	EUR	approved	17.08.2017 19:34:19	4,8
9434037	967d145d35f2ebb2454f42e593e314dd9fef1701	HAPPYCAR DE (17498)	EUR	pending	14.09.2017 07:34:56	5,1
9434494	0ae4d4b44b70c360159aecf90aa4d3d6175c406d	HAPPYCAR DE (17498)	EUR	pending	14.09.2017 20:07:11	17,5
9434682	86df3e863125b5f375b756a3c15b8c2d9efa10bb	Disneyland Paris (14629)	EUR	approved	14.09.2017 10:30:05	62,1
9447026	11e648ee9a51f33eb4a018867ddcedb266a691c5	Booking.com Germany (4297289)	EUR	pending	15.09.2017 15:32:16	0,0
9461142	495e654a11123bd0e5b6f243022a0a860d5a4bfb	HAPPYCAR DE (17498)	EUR	pending	16.09.2017 17:25:45	10,5
9461437	6d2b244dc5f45316f799316eb5c986dcaab65b04	Disneyland Paris (14629)	EUR	approved	16.09.2017 10:30:06	2,1
9494764	2d12b6c804a3a2120db74c76d5bf02bc197fcd2d	hotels.com DE (1216)	EUR	approved	27.04.2017 09:53:04	1,4
9496287	c47efed27fb8e996e29d4d3478fc6b71edbb33e8	hotels.com DE (1216)	EUR	approved	26.07.2017 17:51:09	0,9
9496634	8525e37af37f482bafb61bd095bddebadded0421	HAPPYCAR DE (17498)	EUR	pending	18.09.2017 09:15:59	16,0
9496970	7527191dfaac12e73bb4a7ddcc6c1b4f9eb5736b	HAPPYCAR DE (17498)	EUR	pending	18.09.2017 19:09:55	8,9
9498158	00bd5dcb85e2b6c99f2ef02780cb00f412fc859b	Stage Entertainment - Musicals und Shows (20703)	EUR	declined	23.08.2017 08:04:25	13,9
9507126	1a7855391bc7cbd2435f14c70913a039527d5a0d	BahnCard und Bahn&Hotel (3101)	EUR	approved	29.08.2017 21:43:57	1,0
9508096	6ad38aa6dfe402f95eac16ce70636754603162e2	BahnCard und Bahn&Hotel (3101)	EUR	approved	30.08.2017 17:15:30	1,0
9515332	c1b5bf7f280aec35a36e45dde077444a62e3f1e3	Opodo DE (349)	EUR	approved	31.07.2017 09:39:18	4,5
9515641	9ad97f72eb9f35556b6539b623a1f600b25b579c	Expedia.de (400)	EUR	approved	11.08.2017 21:22:27	3,5
9517248	e4725a4f96dfacf66dc9248b26a90dba22bdcee0	HAPPYCAR DE (17498)	EUR	pending	19.09.2017 20:00:32	12,0
9517276	e4725a4f96dfacf66dc9248b26a90dba22bdcee0	HAPPYCAR DE (17498)	EUR	pending	19.09.2017 20:52:40	12,0
9517518	ef77f6eff3a5d8433db290b09383d59c057c370c	Disneyland Paris (14629)	EUR	approved	19.09.2017 10:30:04	2,5
9518462	c2de0460dae62b4ece5759aede5dd489e1b7c72c	weg.de (954)	EUR	pending	19.09.2017 18:35:27	22,0
9527668	fac069f9ba5fe2b3d196025961f9450f799fdea0	BahnCard und Bahn&Hotel (3101)	EUR	approved	30.08.2017 14:37:21	4,0
9528180	d48bf2cb976f3b854579e10034eb371c3085f378	BahnCard und Bahn&Hotel (3101)	EUR	pending	20.09.2017 16:49:25	22,1
9528668	13863a2a6bf1c9d7c1d432c05a8610fac1365096	BahnCard und Bahn&Hotel (3101)	EUR	pending	20.09.2017 20:25:59	1,0
9535075	202b912a8fc903a6ce72ed779ae3c7d8d6f34dc8	HAPPYCAR DE (17498)	EUR	pending	20.09.2017 11:04:05	9,9
9535200	e2c3d686dbd9acd1a15a28e25b6c73bc6719cc0f	Expedia.de (400)	EUR	pending	20.09.2017 14:24:49	40,0
9535318	5c4451f87eb76cc4aa9b1dc3362effb2630d6816	HAPPYCAR DE (17498)	EUR	pending	20.09.2017 16:53:56	5,5
9535481	8d2675588857d00bb1b158c4def480b10dac1980	HAPPYCAR DE (17498)	EUR	pending	20.09.2017 20:03:17	9,8
9535632	81ec5de15ae498f3e621fef961dbe1b729584ba8	Disneyland Paris (14629)	EUR	approved	20.09.2017 10:30:04	4,8
9536290	44c78ab820fe1c4070d7286dc623872042362838	Stage Entertainment - Musicals und Shows (20703)	EUR	approved	31.08.2017 16:55:17	9,8
9551607	c821a4a0e227aef9576b07e09a5e849e99a424e3	ebookers.de (1635)	EUR	pending	21.09.2017 18:35:24	4,7
9551925	1971a19d97c7e6d8447d1b280acbcc493ba18107	Disneyland Paris (14629)	EUR	approved	21.09.2017 10:30:03	15,7
9551926	1dad1f1d4d3052781ca6cd247f1dc8a15c8ad5f2	Disneyland Paris (14629)	EUR	approved	21.09.2017 10:30:04	17,9
9551927	ef77f6eff3a5d8433db290b09383d59c057c370c	Disneyland Paris (14629)	EUR	approved	21.09.2017 10:30:04	1,8
9560517	79654d792c795ad3ba83474ea0c2cd47efce6389	BahnCard und Bahn&Hotel (3101)	EUR	approved	02.09.2017 13:04:46	1,5
9564400	9286b065957c18f4edfe343cc2ec2fca463bea73	Disneyland Paris (14629)	EUR	approved	22.09.2017 10:30:04	2,8
9572758	2d445a0582b927d057d6d61bcfeeac8fcd1448b1	HRS DE/AT (16250)	EUR	pending	23.09.2017 18:29:43	2,9
9572767	11bab2b938aa729cdee17da65b4fb97d39f4504a	BahnCard und Bahn&Hotel (3101)	EUR	pending	23.09.2017 20:50:42	7,9
9573804	4c903c0a35f7fc328e8689c25367e7ab745624a4	Booking.com Germany (4297289)	EUR	pending	23.09.2017 07:55:38	0,0
9575841	2a3905781a0e26e97cb43fdadc9ac7d0d7a918bd	Disneyland Paris (14629)	EUR	approved	23.09.2017 10:30:06	4,9
9585390	2d445a0582b927d057d6d61bcfeeac8fcd1448b1	HRS DE/AT (16250)	EUR	pending	24.09.2017 17:37:37	3,8
9585828	de84ff4ef559121e69c4f3f33ed2cd9afe61ab3e	BahnCard und Bahn&Hotel (3101)	EUR	pending	24.09.2017 09:51:53	10,6
9586618	c9918ae12dae9aaa3a752d48d8f49919edf8c960	Booking.com Germany (4297289)	EUR	pending	24.09.2017 07:38:57	0,0
9587815	5d4c8f4ae135e4c2040e2807c7dd50228f89eec7	ebookers.de (1635)	EUR	approved	02.09.2017 07:26:49	0,0
9588290	e10aa64449bc2311172e5ffe06a8b864ca215dce	ebookers.de (1635)	EUR	pending	24.09.2017 15:03:29	3,4
9588480	bb075dc2110008dc02b3d3cb99f6f8787628918a	hotels.com DE (1216)	EUR	pending	24.09.2017 16:33:48	5,1
9588622	7f6d72cc0ec7a6956b040e414498f065ba4ff071	ebookers.de (1635)	EUR	pending	24.09.2017 17:46:41	2,6
9588972	11a75b8dfc227a54842c964c51155524cc69b695	Disneyland Paris (14629)	EUR	approved	24.09.2017 10:30:04	11,3
9589822	7b2e5e8e5621b80ee50168d2bf9e89c36301c077	weg.de (954)	EUR	pending	24.09.2017 20:43:47	6,5
9589823	7b2e5e8e5621b80ee50168d2bf9e89c36301c077	weg.de (954)	EUR	pending	24.09.2017 20:50:18	6,5
9599869	2e1a78888b70c67c9c8a5277acfff9fb1a66fee7	BahnCard und Bahn&Hotel (3101)	EUR	pending	25.09.2017 19:09:25	7,7
9618788	1296e3160b290913158508c5c8da0172e73194f7	BahnCard und Bahn&Hotel (3101)	EUR	approved	05.09.2017 08:04:12	3,0
9624863	c44a61b736e909feedc7895adf79ab56ded742f0	Disneyland Paris (14629)	EUR	approved	26.09.2017 10:30:08	8,2
9624864	3770d274f49cfa40417f1fc88615b4faaaab1d8a	Disneyland Paris (14629)	EUR	approved	26.09.2017 10:30:08	0,9
9642905	6ce5efec096c60883b3f79121dcb6c4d57d2aae0	ebookers.de (1635)	EUR	approved	08.03.2017 21:53:55	4,8
9642931	3c2270d2394986d3af4ff3a2b8b439dfaafb76c8	ebookers.de (1635)	EUR	approved	19.03.2017 14:25:39	0,0
9643092	56868539f105e0725df982f8c60e2100fd24de0f	ebookers.de (1635)	EUR	approved	06.08.2017 08:25:44	1,1
9643142	31d257bd669757e0d79059041dcc65b4194f9076	Eurowings Global (6482)	EUR	approved	18.08.2017 13:27:39	4,7
9643916	50355e3014ec508574953ea581dd877e2463d37e	Disneyland Paris (14629)	EUR	approved	27.09.2017 14:30:15	6,8
9675257	499f2ffc8fe33730fbb6a35d5c6f186fdc5341e1	Agoda Dach (17662)	EUR	approved	01.08.2017 13:26:15	3,8
9703779	6e5f0dbc81ae5d11e9223b3c41f0fc3e61cdfec1	HRS DE/AT (16250)	EUR	approved	19.06.2017 14:22:12	4,5
9703798	a6818abdbe38272bcf49d4d1ae5ecb452b01f2ad	TUI.com - Zeit für neue Ziele (9881)	EUR	approved	01.08.2017 10:58:12	65,0
9705954	77c3c3db79e69e64f25ef637e6e3f968e29550c2	koffer24 DE (13574)	EUR	pending	30.09.2017 16:46:44	5,8
9706170	ef0b785247f856808189294a4f3b28fb6197ad00	ebookers.de (1635)	EUR	pending	30.09.2017 21:07:29	0,0
9706239	59c2c4d04c4976f4f49fad88626d148be27bb565	Expedia.de (400)	EUR	approved	03.07.2017 20:35:14	43,8
9706242	d50a49edec2b7c81951dc45b966c0e558236f1d3	HAPPYCAR DE (17498)	EUR	approved	20.07.2017 18:55:48	2,9
9706264	e466d3e3f75155ee32b654ee1271ba02c24e2a2f	HAPPYCAR DE (17498)	EUR	approved	31.07.2017 20:56:34	5,6
9706283	2ba726f5abcab8ac2b7678b610530d7ddfea8b56	HAPPYCAR DE (17498)	EUR	declined	01.08.2017 20:02:03	12,5
9706284	2ba726f5abcab8ac2b7678b610530d7ddfea8b56	HAPPYCAR DE (17498)	EUR	approved	01.08.2017 20:13:21	12,5
9706341	c21f27eefe440317e2183577b3b2765bdb860e91	HAPPYCAR DE (17498)	EUR	approved	06.08.2017 18:39:20	9,4
9707053	a13649701ad781f4448461cd878f1d180b7952cb	HAPPYCAR DE (17498)	EUR	approved	02.09.2017 15:31:23	22,7
9707057	6c41a1580fe90ef890ae83a5182de35fbb5dedfb	HAPPYCAR DE (17498)	EUR	approved	03.09.2017 12:36:52	6,8
9707061	98ef8ecc386894f73443043c537bbb1b2f47a95a	HAPPYCAR DE (17498)	EUR	approved	03.09.2017 22:04:40	6,5
9707070	6a56238bb9d70194ea4cd4fc98dc7e4d5aceb2d6	HAPPYCAR DE (17498)	EUR	approved	05.09.2017 19:33:36	5,2
9707078	3d957c9f87245a5d0e90ce09ad389697687c8d72	HAPPYCAR DE (17498)	EUR	approved	07.09.2017 14:35:06	12,8
9707080	0fcbfa9e7912483591be157ac0c544bb755047b9	HAPPYCAR DE (17498)	EUR	declined	08.09.2017 11:15:32	3,9
9707083	68afade38f836ba5d1a80d59f7a6b43d4ebb35b3	HAPPYCAR DE (17498)	EUR	approved	08.09.2017 16:34:35	7,6
9707087	ac78a70abb6a610b9ccc29b6fdf99ac3bbbbf395	HAPPYCAR DE (17498)	EUR	approved	11.09.2017 11:53:35	5,9
9707088	290281b4f54550491807b876e38c7f3cc9f2ae67	HAPPYCAR DE (17498)	EUR	approved	11.09.2017 21:44:03	5,7
9707258	7b86cf9201f53f429ea3cb0ba1ba95b590054fb0	SEA LIFE DE (12509)	EUR	pending	29.09.2017 08:20:40	2,2
9707527	0386efeea96b15657ce79efea40c94635d995e9b	Austrian Airlines DE (1292)	EUR	pending	29.09.2017 14:18:43	3,6
9707939	7d908a2731ffc065cbd790fa472f65321d80d1a8	Disneyland Paris (14629)	EUR	approved	29.09.2017 18:30:06	24,1
9709127	bb0f935d1c49d23056aa98baf4638da6570e294b		EUR	pending	29.09.2017 20:34:59	4,3
